0110001SISTEMA INTEGRADO MULTIPLE DE PAGOS ELECTRONI                                                                                                                                                           NI900097333       9
0200001CC1073323010      0100  01001ROMERO              LUGO                          ISNELDA                                                       X  00230301      EPS037      CCF22 01010101002649204 0000883070000883070000883070000883070.160000000142000000000000000000000000142000000000000000000000000000000.040000000036000000000000              0000000000              0000000000.00000000000000000000000000.040000000036000.000000000000000.000000000000000.000000000000000.00000000000000                  S
0200001CC1030574584      0100  01001RODRIGUEZ           TORRES                        LUISA               JUDITH                                    X  00230301      EPS037      CCF22 30303030002649204 0026492040026492040026492040026492040.160000004239000000000000000000000004239000000000000000000000000000000.040000001060000000000000              0000000000              0000000000.00522000000000010000139000.040000001060000.000000000000000.000000000000000.000000000000000.00000000000000                  S
0200001CC1073323010      0100  01001ROMERO              LUGO                          ISNELDA                                                       X  00230301      EPS037      CCF22 29292929002649204 0025608970025608970025608970025608970.160000004098000000000000000000000004098000000000000000000000000000000.040000001025000000000000              0000000000              0000000000.00522000000000010000134000.040000001025000.000000000000000.000000000000000.000000000000000.00000000000000                  S
0200001CC1075650603      0100  01001DIAZ                ROBAYO                        DIANA               MARCELA                                   X  00230201      EPS017      CCF22 30303030000828116 0008281160008281160008281160008281160.160000001325000000000000000000000001325000000000000000000000000000000.040000000332000000000000              0000000000              0000000000.00522000000000010000044000.040000000332000.000000000000000.000000000000000.000000000000000.00000000000000                  S
0200001CC1023039323      0100  01001BARRERA             SANDOVAL                      CAMILA              ANDREA                        X     X     X  00230301      EPS005      CCF22 19191919000828116 0005244740005244740005244740005244740.160000000840000000000000000000000000840000000000000000000000000000000.040000000210000000000000              0000000000              0000000000.00522000000000010000028000.040000000210000.000000000000000.000000000000000.000000000000000.00000000000000                  S
0200001CC1088003413      0100  06001GARCIA              OSPINA                        MARLY               JULIETH                                   X  00230301      EPS010      CCF44 30303030001300000 0013000000013000000013000000013000000.160000002080000000000000000000000002080000000000000000000000000000000.040000000520000000000000              0000000000              0000000000.01044000000000020000136000.040000000520000.000000000000000.000000000000000.000000000000000.00000000000000                  S
0200001CC1019027018      0100  01001LAVERDE             RIOS                          RAFAEL              ALEJANDRO                                 X  00230901      EPS002      CCF22 30303030004668284 0046682840046682840046682840046682840.160000007470000000000000000000000007470000000234000000234000000000000.040000001868000000000000              0000000000              0000000000.00522000000000010000244000.040000001868000.000000000000000.000000000000000.000000000000000.00000000000000                  S
